c:\Users\Administrator\Desktop\oop\week6\src\test\java\com\tanitha\week6\BookBankTest.java
c:\Users\Administrator\Desktop\oop\week6\src\test\java\com\tanitha\week6\RobotTest.java
c:\Users\Administrator\Desktop\oop\week6\src\test\java\com\tanitha\week6\AppTest.java
